{
  "orgName": "MotorolaTest",
  "edition": "Enterprise",
  "features": ["Communities", "CustomerCommunity", "CustomerCommunityPlus"],
  "settings": {
    "mobileSettings": {
        "enableS1EncryptedStoragePref2": true
    },
    "caseSettings": {
        "systemUserEmail": "support@acme.com"
    },
    "communitiesSettings": {
        "enableNetworksEnabled": true
    }
  }
}
